<?xml version="1.0" encoding="UTF-8" standalone="no"?>
<svg
   xmlns:dc="http://purl.org/dc/elements/1.1/"
   xmlns:cc="http://creativecommons.org/ns#"
   xmlns:rdf="http://www.w3.org/1999/02/22-rdf-syntax-ns#"
   xmlns:svg="http://www.w3.org/2000/svg"
   xmlns="http://www.w3.org/2000/svg"
   version="1.1"
   id="svg3437"
   viewBox="0 0 480 480.00001"
   height="480"
   width="480">
  <metadata
     id="metadata3442">
    <rdf:RDF>
      <cc:Work
         rdf:about="">
        <dc:format>image/svg+xml</dc:format>
        <dc:type
           rdf:resource="http://purl.org/dc/dcmitype/StillImage" />
        <dc:title></dc:title>
      </cc:Work>
    </rdf:RDF>
  </metadata>
  <g
     transform="translate(0,-572.36216)"
     id="layer1">
    <path
       id="path3467"
       d="m 217.03098,1045.4259 c -14.74175,-1.5329 -32.5064,-5.4292 -48.33714,-10.6017 C 108.91094,1015.2909 60.203251,973.11297 32.004215,916.45916 -26.13662,799.65002 22.792527,658.0351 140.85933,601.40134 c 87.54505,-41.99321 192.2762,-25.02542 262.68965,42.55911 19.90005,19.10053 34.94622,39.63004 47.43655,64.72401 27.4751,55.19944 32.03874,118.21187 12.79658,176.68836 -11.12644,33.81295 -29.01759,63.5626 -53.6759,89.25313 -49.74494,51.82705 -121.719,78.21975 -193.07523,70.79995 z M 168.6592,935.44725 c 0,-13.09118 0.0474,-13.34438 2.50199,-13.36329 1.37609,-0.0111 6.00477,-0.75471 10.28595,-1.65353 31.66769,-6.64873 52.64973,-35.47688 50.08216,-68.81008 -1.25611,-16.30748 -6.85934,-28.19448 -18.26977,-38.75852 -7.87232,-7.28837 -17.22569,-11.97088 -32.36838,-16.20436 l -11.67595,-3.26426 -0.29279,-37.3925 c -0.33256,-42.47133 -1.10203,-39.57372 9.23112,-34.76197 9.64981,4.49355 15.9167,13.24316 19.42131,27.11534 0.65667,2.59929 1.54996,4.7154 1.98508,4.70249 2.46715,-0.0733 25.89108,-4.13389 26.31984,-4.56265 0.28235,-0.28235 -0.22836,-3.69286 -1.13491,-7.5789 -3.7133,-15.91746 -15.67367,-31.83678 -28.71818,-38.22406 -6.16554,-3.01897 -21.20471,-7.43464 -25.32135,-7.43464 -1.73881,0 -2.04612,-0.91857 -2.04612,-6.11597 l 0,-6.11598 -7.78396,0 -7.78397,0 0,6.00183 0,6.00181 -7.50059,1.30618 c -17.02556,2.96486 -27.52937,8.25412 -37.02545,18.64434 -10.349798,11.32432 -14.424091,22.56869 -14.382503,39.69335 0.01501,6.15787 0.533402,13.39197 1.152127,16.0758 4.505081,19.54166 19.346456,33.0767 47.155856,43.00519 l 10.04457,3.58609 0.29142,41.14814 0.29142,41.14813 -3.83614,-0.86519 c -10.87819,-2.45342 -21.69113,-11.54505 -26.82,-22.55052 -1.49278,-3.20319 -3.55367,-9.70208 -4.57973,-14.44196 -2.12095,-9.79774 -1.27204,-9.38399 -14.27475,-6.95739 -14.760303,2.75461 -13.901954,2.32315 -13.883506,6.97858 0.04359,10.98878 6.189542,26.8552 14.394196,37.15981 9.62363,12.08674 21.78734,18.64251 40.94058,22.06545 l 8.0325,1.43547 0,13.1658 0,13.16591 7.78397,0 7.78396,0 0,-13.34394 z m 0.63099,-36.43552 c -0.34704,-0.34706 -0.63099,-17.87387 -0.63099,-38.9485 l 0,-38.31749 3.08673,0.61735 c 6.19885,1.23978 16.00417,5.49372 20.57909,8.92808 3.0059,2.25648 5.8789,5.90101 8.00076,10.14932 2.96767,5.94173 3.30276,7.67003 3.23393,16.6798 -0.0579,7.58238 -0.68095,11.60857 -2.53648,16.39143 -4.38404,11.30039 -14.93771,20.68034 -27.00706,24.00349 -2.25224,0.62012 -4.37893,0.84356 -4.72598,0.49652 z M 141.38396,784.94071 c -13.9526,-6.70073 -20.54054,-16.74104 -20.54054,-31.30466 0,-16.46911 10.09294,-29.58687 26.40988,-34.32479 l 5.83797,-1.69517 0,35.5239 c 0,40.91629 1.09278,37.94796 -11.70731,31.80072 z m 209.96389,133.00163 c 17.79027,-6.55855 31.50319,-22.27149 39.20908,-44.92777 9.4031,-27.64623 10.68834,-81.65526 2.69594,-113.2897 -6.46852,-25.60284 -19.01087,-43.55334 -36.09336,-51.65645 -9.78353,-4.64083 -16.96911,-6.14458 -29.26176,-6.1237 -27.82167,0.0473 -46.21021,12.40731 -58.71072,39.46304 -13.70783,29.66881 -15.30173,96.23371 -3.17642,132.65403 7.86778,23.63209 23.11363,39.50262 43.5287,45.31235 8.55188,2.43372 33.65515,1.57392 41.80854,-1.4318 z M 315.702,896.89677 c -6.96489,-2.46482 -16.26124,-11.49174 -20.22452,-19.63835 -7.06484,-14.52193 -9.40819,-30.58852 -9.4347,-64.68663 -0.0399,-51.29175 7.27713,-74.62015 26.61977,-84.87009 4.75535,-2.51993 6.92785,-2.94631 15.01193,-2.94631 8.08972,0 10.25327,0.42526 15.01193,2.95071 6.66875,3.53915 15.02109,11.95043 18.21404,18.34259 7.76419,15.54358 11.49053,50.5061 9.1049,85.42701 -2.63393,38.55545 -9.67351,55.22448 -26.97287,63.86908 -5.77282,2.88471 -8.02517,3.39316 -14.70161,3.31882 -4.3364,-0.0483 -10.01939,-0.84336 -12.62887,-1.76683 z"
       />
  </g>
</svg>
